FRED Tags
…
fredr_tags(tag_names = "gdp;oecd", limit = 10)
#> # A tibble: 2 x 6
#>   name  group_id notes                     created       popularity series_count
#>   <chr> <chr>    <chr>                     <chr>              <int>        <int>
#> 1 gdp   gen      Gross Domestic Product    2012-02-27 1…         82        74562
#> 2 oecd  src      Org. for Economic Co-ope… 2012-02-27 1…         77        64184

Return tags for a given group ID:

fredr_tags(
  tag_group_id = "geo",
  limit = 50L
)
#> # A tibble: 50 x 6
#>    name  group_id notes               created            popularity series_count
#>    <chr> <chr>    <chr>               <chr>                   <int>        <int>
#>  1 usa   geo      United States of A… 2012-02-27 10:18:…        100       605934
#>  2 tx    geo      Texas               2012-02-27 10:18:…         58        35518
#>  3 ga    geo      Georgia (U.S. stat… 2012-02-27 10:18:…         49        20676
#>  4 ca    geo      California          2012-02-27 10:18:…         61        18042
#>  5 va    geo      Virginia            2012-02-27 10:18:…         49        17250
#>  6 nc    geo      North Carolina      2012-02-27 10:18:…         50        16988
#>  7 oh    geo      Ohio                2012-02-27 10:18:…         50        16536
#>  8 il    geo      Illinois            2012-02-27 10:18:…         49        16206
#>  9 mo    geo      Missouri            2012-02-27 10:18:…         47        15322
#> 10 ky    geo      Kentucky            2012-02-27 10:18:…         45        15280
#> # … with 40 more rows
…
fredr_tags(search_text = "unemployment")
#> # A tibble: 2 x 6
#>   name     group_id notes                   created      popularity series_count
#>   <chr>    <chr>    <chr>                   <chr>             <int>        <int>
#> 1 unemplo… gen      ""                      2012-02-27 …         78        32404
#> 2 nairu    gen      "Non-Accelerating Infl… 2012-08-10 …         19            2

Note that the example above searches for tags matching "unemployment". To search for the set of series with tags matching "unemployment", use fredr_series_search_tags():

fredr_series_search_tags(
  series_search_text = "unemployment",
  limit = 100L
)
#> # A tibble: 100 x 6
#>    name           group_id notes             created     popularity series_count
#>    <chr>          <chr>    <chr>             <chr>            <int>        <int>
#>  1 nsa            seas     "Not Seasonally … 2012-02-27…        100        44394
#>  2 usa            geo      "United States o… 2012-02-27…        100        39412
#>  3 public domain… cc        <NA>             2018-12-17…        100        39138
#>  4 bls            src      "Bureau of Labor… 2012-02-27…         87        35440
#>  5 unemployment   gen      ""                2012-02-27…         78        32132
#>  6 county         geot     "County or Count… 2012-02-27…         80        28286
#>  7 annual         freq     ""                2012-02-27…         90        22008
#>  8 household sur… gen      "Current Populat… 2012-06-18…         65        19978
#>  9 monthly        freq     ""                2012-02-27…         93        18734
#> 10 rate           gen      ""                2012-02-27…         87        14908
#> # … with 90 more rows
…
Get series by tag names

The function fredr_tags_series() returns a list of series assigned tags matching the request. As with the functions for the Series endpoint, the data returned is a tibble in which each row represents a series. For example, to get all series tagged with "gdp":

fredr_tags_series(tag_names = "gdp")
#> # A tibble: 1,000 x 16
#>    id    realtime_start realtime_end title observation_sta… observation_end
#>    <chr> <chr>          <chr>        <chr> <chr>            <chr>          
#>  1 A001… 2020-11-11     2020-11-11   Gros… 1929-01-01       2019-01-01     
#>  2 A001… 2020-11-11     2020-11-11   Gros… 1929-01-01       2019-01-01     
#>  3 A001… 2020-11-11     2020-11-11   Gros… 1930-01-01       2019-01-01     
#>  4 A001… 2020-11-11     2020-11-11   Gros… 1947-04-01       2020-04-01     
#>  5 A001… 2020-11-11     2020-11-11   Real… 1930-01-01       2019-01-01     
#>  6 A001… 2020-11-11     2020-11-11   Real… 1947-04-01       2020-04-01     
#>  7 A001… 2020-11-11     2020-11-11   Real… 1948-01-01       2020-04-01     
#>  8 A001… 2020-11-11     2020-11-11   Gros… 1930-01-01       2019-01-01     
#>  9 A001… 2020-11-11     2020-11-11   Gros… 1947-04-01       2020-04-01     
#> 10 A001… 2020-11-11     2020-11-11   Gros… 1930-01-01       2019-01-01     
#> # … with 990 more rows, and 10 more variables: frequency <chr>,
#> #   frequency_short <chr>, units <chr>, units_short <chr>,
#> #   seasonal_adjustment <chr>, seasonal_adjustment_short <chr>,
#> #   last_updated <chr>, popularity <int>, group_popularity <int>, notes <chr>

To get the top 100 most popular non-quarterly series tagged with "gdp":

fredr_tags_series(
  tag_names = "gdp",
  exclude_tag_names = "quarterly",
  order_by = "popularity",
  limit = 100L
)
#> # A tibble: 100 x 16
#>    id    realtime_start realtime_end title observation_sta… observation_end
#>    <chr> <chr>          <chr>        <chr> <chr>            <chr>          
#>  1 H407… 2020-11-11     2020-11-11   Comp… 1929-01-01       1948-01-01     
#>  2 B407… 2020-11-11     2020-11-11   Comp… 1987-01-01       2000-01-01     
#>  3 J404… 2020-11-11     2020-11-11   Comp… 1948-01-01       1987-01-01     
#>  4 N404… 2020-11-11     2020-11-11   Comp… 1998-01-01       2019-01-01     
#>  5 B405… 2020-11-11     2020-11-11   Comp… 1987-01-01       2000-01-01     
#>  6 H405… 2020-11-11     2020-11-11   Comp… 1929-01-01       1948-01-01     
#>  7 J405… 2020-11-11     2020-11-11   Comp… 1948-01-01       1969-01-01     
#>  8 B418… 2020-11-11     2020-11-11   Curr… 1959-01-01       2016-01-01     
#>  9 B490… 2020-11-11     2020-11-11   Empl… 1987-01-01       2000-01-01     
#> 10 J491… 2020-11-11     2020-11-11   Empl… 1948-01-01       1987-01-01     
#> # … with 90 more rows, and 10 more variables: frequency <chr>,
#> #   frequency_short <chr>, units <chr>, units_short <chr>,
#> #   seasonal_adjustment <chr>, seasonal_adjustment_short <chr>,
#> #   last_updated <chr>, popularity <int>, group_popularity <int>, notes <chr>
